{
    "style": {
        "background-color": "#ebf4fb",
        "border": 10,
        "overflow":"auto"
    },

    "contents": [
        {
            "name": "title",
            "control": "TextView",
            "label": "Aplikasi ini digunakan untuk Penanggalan Jawa. Menu Watak Weton digunakan untuk mencari data weton dari suatu tanggal kelahiran dilengkapi dengan prediksi perwatakan seseorang menurut hari. Kalender Wuku digunakan : untuk mencari Data Wuku dari suatu Tanggal Kelahiran. Jumlah Wuku dalam Penanggalan Jawa: 30 buah. Hasil yang diperoleh adalah Data Kalender Wuku pada suatu Tanggal Kelahiran, dilengkapi dengan Prediksi Prakiraan Perwatakan sesorang menurut Hari dan Pasaran (Weton) tanggal kelahiran. ",
            "style": {
                "font-weight":"bold"
            }
        }


    ]
}
